<?xml version="1.0" encoding="UTF-8" standalone="no"?>
<!-- Created with Inkscape (http://www.inkscape.org/) -->

<svg
   xmlns:dc="http://purl.org/dc/elements/1.1/"
   xmlns:cc="http://creativecommons.org/ns#"
   xmlns:rdf="http://www.w3.org/1999/02/22-rdf-syntax-ns#"
   xmlns:svg="http://www.w3.org/2000/svg"
   xmlns="http://www.w3.org/2000/svg"
   xmlns:sodipodi="http://sodipodi.sourceforge.net/DTD/sodipodi-0.dtd"
   xmlns:inkscape="http://www.inkscape.org/namespaces/inkscape"
   width="30.620941mm"
   height="36.113007mm"
   viewBox="0 0 30.620941 36.113006"
   version="1.1"
   id="svg8"
   inkscape:version="0.92.4 (5da689c313, 2019-01-14)"
   sodipodi:docname="logo.svg">
  <defs
     id="defs2" />
  <sodipodi:namedview
     id="base"
     pagecolor="#ffffff"
     bordercolor="#666666"
     borderopacity="1.0"
     inkscape:pageopacity="0.0"
     inkscape:pageshadow="2"
     inkscape:zoom="2.8"
     inkscape:cx="13.835003"
     inkscape:cy="69.222124"
     inkscape:document-units="mm"
     inkscape:current-layer="g827"
     showgrid="false"
     inkscape:window-width="1920"
     inkscape:window-height="973"
     inkscape:window-x="1600"
     inkscape:window-y="37"
     inkscape:window-maximized="1" />
  <metadata
     id="metadata5">
    <rdf:RDF>
      <cc:Work
         rdf:about="">
        <dc:format>image/svg+xml</dc:format>
        <dc:type
           rdf:resource="http://purl.org/dc/dcmitype/StillImage" />
        <dc:title></dc:title>
      </cc:Work>
    </rdf:RDF>
  </metadata>
  <g
     inkscape:label="Camada 1"
     inkscape:groupmode="layer"
     id="layer1"
     transform="translate(-14.676828,-75.579918)">
    <g
       id="g827"
       transform="rotate(90,41.009209,115.8032)">
      <rect
         style="opacity:1;fill:#ffffff;fill-opacity:1;stroke:#ffffff;stroke-width:0.82951087;stroke-linecap:square;stroke-linejoin:miter;stroke-miterlimit:4;stroke-dasharray:none;stroke-dashoffset:0"
         id="rect893"
         width="29.79143"
         height="35.283497"
         x="-141.72083"
         y="1.2006824"
         ry="0"
         inkscape:export-xdpi="96"
         inkscape:export-ydpi="96"
         transform="rotate(-90)" />
      <path
         style="fill:none;stroke:#000000;stroke-width:1.46120489;stroke-linecap:butt;stroke-linejoin:miter;stroke-miterlimit:4;stroke-dasharray:none;stroke-opacity:1"
         d="m 22.48608,126.82511 h 7.145892"
         id="path841"
         inkscape:connector-curvature="0"
         inkscape:export-xdpi="96"
         inkscape:export-ydpi="96" />
      <path
         style="opacity:1;fill:#ffffff;fill-opacity:1;stroke:#000000;stroke-width:0.82418764;stroke-linecap:round;stroke-linejoin:round;stroke-miterlimit:4;stroke-dasharray:none;stroke-dashoffset:0"
         id="path991"
         sodipodi:type="arc"
         sodipodi:cx="126.82512"
         sodipodi:cy="28.185202"
         sodipodi:rx="2.5463066"
         sodipodi:ry="2.5463066"
         sodipodi:start="2.8151463"
         sodipodi:end="2.8128599"
         sodipodi:open="true"
         d="m 124.41329,29.001749 a 2.5463066,2.5463066 0 0 1 1.5939,-3.227911 2.5463066,2.5463066 0 0 1 3.22882,1.59206 2.5463066,2.5463066 0 0 1 -1.59021,3.229731 2.5463066,2.5463066 0 0 1 -3.23064,-1.588368"
         transform="matrix(0,1,1,0,0,0)"
         inkscape:export-xdpi="96"
         inkscape:export-ydpi="96" />
      <path
         sodipodi:nodetypes="ccc"
         inkscape:connector-curvature="0"
         id="path855"
         d="m 22.818032,126.90348 -4.445755,6.67357 H 9.8977497"
         style="fill:none;stroke:#000000;stroke-width:1.46120489;stroke-linecap:butt;stroke-linejoin:miter;stroke-miterlimit:4;stroke-dasharray:none;stroke-opacity:1"
         inkscape:export-xdpi="96"
         inkscape:export-ydpi="96" />
      <path
         style="opacity:1;fill:#000000;fill-opacity:1;stroke:#000000;stroke-width:0.82418764;stroke-linecap:round;stroke-linejoin:round;stroke-miterlimit:4;stroke-dasharray:none;stroke-dashoffset:0"
         id="path857"
         sodipodi:type="arc"
         sodipodi:cx="133.57704"
         sodipodi:cy="9.49967"
         sodipodi:rx="2.5463066"
         sodipodi:ry="2.5463066"
         sodipodi:start="2.8151463"
         sodipodi:end="2.8128599"
         sodipodi:open="true"
         d="m 131.16521,10.316217 a 2.5463066,2.5463066 0 0 1 1.59391,-3.2279107 2.5463066,2.5463066 0 0 1 3.22882,1.5920598 2.5463066,2.5463066 0 0 1 -1.59022,3.2297309 2.5463066,2.5463066 0 0 1 -3.23064,-1.588367"
         transform="matrix(0,1,1,0,0,0)"
         inkscape:export-xdpi="96"
         inkscape:export-ydpi="96" />
      <path
         style="fill:none;stroke:#000000;stroke-width:1.46120489;stroke-linecap:butt;stroke-linejoin:miter;stroke-miterlimit:4;stroke-dasharray:none;stroke-opacity:1"
         d="m 22.818032,126.74676 -4.445755,-6.67357 H 9.8977497"
         id="path905"
         inkscape:connector-curvature="0"
         sodipodi:nodetypes="ccc"
         inkscape:export-xdpi="96"
         inkscape:export-ydpi="96" />
      <path
         transform="matrix(0,1,1,0,0,0)"
         d="m 117.66137,10.316213 a 2.5463066,2.5463066 0 0 1 1.5939,-3.2279114 2.5463066,2.5463066 0 0 1 3.22882,1.5920597 2.5463066,2.5463066 0 0 1 -1.59021,3.2297307 2.5463066,2.5463066 0 0 1 -3.23064,-1.588367"
         sodipodi:open="true"
         sodipodi:end="2.8128599"
         sodipodi:start="2.8151463"
         sodipodi:ry="2.5463066"
         sodipodi:rx="2.5463066"
         sodipodi:cy="9.4996653"
         sodipodi:cx="120.0732"
         sodipodi:type="arc"
         id="path989"
         style="opacity:1;fill:#ffffff;fill-opacity:1;stroke:#000000;stroke-width:0.82418764;stroke-linecap:round;stroke-linejoin:round;stroke-miterlimit:4;stroke-dasharray:none;stroke-dashoffset:0"
         inkscape:export-xdpi="96"
         inkscape:export-ydpi="96" />
    </g>
  </g>
</svg>
